…
## Coding non-numeric variables

``` r
# Taking off-campus as 0 and on-campus as 1
data %>% mutate(housing_coded = if_else(housing == 'off campus', 0, 1))
```

    ## # A tibble: 200 × 8
    ##    distance scholarship parents   car housing    major     debt housing_coded
    ##       <dbl>       <dbl>   <dbl> <dbl> <chr>      <chr>    <dbl>         <dbl>
    ##  1       40        1532   0.44      6 off campus STEM     26389             0
    ##  2       30        7479   0.265     7 on campus  STEM     21268             1
    ##  3      130        2664   0.115     3 on campus  business 32312             1
    ##  4      120        1998   0.325     9 on campus  business 28539             1
    ##  5       30        1462   0.105    10 off campus other    34867             0
    ##  6        0        3053   0.335     9 off campus STEM     18193             0
    ##  7       30        1301   0.375     5 off campus business 29990             0
    ##  8       50        1948   0.185     6 off campus business 34333             0
    ##  9       10        2295   0.225     8 on campus  STEM     27717             1
    ## 10       10        4653   0.185     3 off campus STEM     21398             0
    ## # … with 190 more rows

``` r
# Taking major other=0, business=1, STEM=2
data %>% mutate(major_coded = if_else(major == 'other', 0, if_else(major == 'business', 1, 2)))
```

    ## # A tibble: 200 × 8
    ##    distance scholarship parents   car housing    major     debt major_coded
    ##       <dbl>       <dbl>   <dbl> <dbl> <chr>      <chr>    <dbl>       <dbl>
    ##  1       40        1532   0.44      6 off campus STEM     26389           2
    ##  2       30        7479   0.265     7 on campus  STEM     21268           2
    ##  3      130        2664   0.115     3 on campus  business 32312           1
    ##  4      120        1998   0.325     9 on campus  business 28539           1
    ##  5       30        1462   0.105    10 off campus other    34867           0
    ##  6        0        3053   0.335     9 off campus STEM     18193           2
    ##  7       30        1301   0.375     5 off campus business 29990           1
    ##  8       50        1948   0.185     6 off campus business 34333           1
    ##  9       10        2295   0.225     8 on campus  STEM     27717           2
    ## 10       10        4653   0.185     3 off campus STEM     21398           2
    ## # … with 190 more rows
